<?xml version="1.0" encoding="UTF-8" standalone="no"?>
<!-- Created with Inkscape (http://www.inkscape.org/) -->

<svg
   xmlns:dc="http://purl.org/dc/elements/1.1/"
   xmlns:cc="http://creativecommons.org/ns#"
   xmlns:rdf="http://www.w3.org/1999/02/22-rdf-syntax-ns#"
   xmlns:svg="http://www.w3.org/2000/svg"
   xmlns="http://www.w3.org/2000/svg"
   xmlns:sodipodi="http://sodipodi.sourceforge.net/DTD/sodipodi-0.dtd"
   xmlns:inkscape="http://www.inkscape.org/namespaces/inkscape"
   width="49.796822mm"
   height="49.796822mm"
   viewBox="0 0 176.44543 176.44543"
   id="svg2"
   version="1.1"
   inkscape:version="0.91 r13725"
   sodipodi:docname="icon_declaration-mode.svg">
  <defs
     id="defs4" />
  <sodipodi:namedview
     id="base"
     pagecolor="#ffffff"
     bordercolor="#666666"
     borderopacity="1.0"
     inkscape:pageopacity="0.0"
     inkscape:pageshadow="2"
     inkscape:zoom="1.979899"
     inkscape:cx="17.292933"
     inkscape:cy="46.828754"
     inkscape:document-units="px"
     inkscape:current-layer="layer1"
     showgrid="false"
     fit-margin-top="0"
     fit-margin-left="0"
     fit-margin-right="0"
     fit-margin-bottom="0"
     inkscape:window-width="1920"
     inkscape:window-height="1138"
     inkscape:window-x="-8"
     inkscape:window-y="-8"
     inkscape:window-maximized="1" />
  <metadata
     id="metadata7">
    <rdf:RDF>
      <cc:Work
         rdf:about="">
        <dc:format>image/svg+xml</dc:format>
        <dc:type
           rdf:resource="http://purl.org/dc/dcmitype/StillImage" />
        <dc:title></dc:title>
      </cc:Work>
    </rdf:RDF>
  </metadata>
  <g
     inkscape:label="Layer 1"
     inkscape:groupmode="layer"
     id="layer1"
     transform="translate(-266.34083,-53.486974)">
    <path
       sodipodi:type="star"
       style="fill:#08c300;fill-opacity:1;stroke:none;stroke-width:2;stroke-miterlimit:4;stroke-dasharray:none;stroke-opacity:1"
       id="path4143"
       sodipodi:sides="12"
       sodipodi:cx="354.56354"
       sodipodi:cy="141.70969"
       sodipodi:r1="77.680084"
       sodipodi:r2="88.272827"
       sodipodi:arg1="0.74897703"
       sodipodi:arg2="1.0107764"
       inkscape:flatsided="false"
       inkscape:rounded="0.4"
       inkscape:randomized="0"
       d="m 411.45533,194.60127 c -6.55639,7.05225 -1.84276,16.78206 -10.00099,21.89709 -8.15824,5.11503 -14.86274,-3.36655 -24.06686,-0.53732 -9.20412,2.82923 -9.9869,13.61231 -19.60966,13.96293 -9.62275,0.35063 -11.18823,-10.34688 -20.57384,-12.49876 -9.38562,-2.15187 -15.45507,6.79516 -23.96393,2.28743 -8.50887,-4.50772 -4.51585,-14.55478 -11.5681,-21.11116 -7.05224,-6.55639 -16.78205,-1.84276 -21.89708,-10.001 -5.11503,-8.15823 3.36655,-14.86273 0.53732,-24.06685 -2.82924,-9.20412 -13.61231,-9.9869 -13.96294,-19.60966 -0.35063,-9.62275 10.34689,-11.18823 12.49876,-20.57385 2.15187,-9.38561 -6.79515,-15.45506 -2.28743,-23.96392 4.50773,-8.508867 14.55478,-4.515853 21.11117,-11.568099 6.55638,-7.052246 1.84275,-16.782056 10.00099,-21.897084 8.15824,-5.11503 14.86274,3.36655 24.06686,0.537318 9.20411,-2.829232 9.9869,-13.612309 19.60965,-13.962935 9.62276,-0.350627 11.18823,10.346886 20.57385,12.498759 9.38562,2.151872 15.45506,-6.795155 23.96393,-2.28743 8.50886,4.507727 4.51585,14.554783 11.56809,21.111168 7.05225,6.556384 16.78206,1.842755 21.89709,10.000992 5.11503,8.158241 -3.36655,14.862741 -0.53732,24.066851 2.82923,9.20412 13.61231,9.9869 13.96293,19.60966 0.35063,9.62275 -10.34688,11.18823 -12.49875,20.57385 -2.15188,9.38561 6.79515,15.45506 2.28742,23.96393 -4.50772,8.50886 -14.55478,4.51585 -21.11116,11.56809 z"
       inkscape:transform-center-x="5.2453988"
       inkscape:transform-center-y="-3.2833186" />
    <circle
       style="fill:#ffffff;fill-opacity:1;stroke:none;stroke-width:2;stroke-miterlimit:4;stroke-dasharray:none;stroke-opacity:1"
       id="path4145"
       cx="354.56354"
       cy="141.70969"
       r="50.507629" />
    <circle
       style="fill:none;fill-opacity:1;stroke:#ffffff;stroke-width:7.01602173;stroke-miterlimit:4;stroke-dasharray:none;stroke-opacity:1"
       id="path4150"
       cx="354.56354"
       cy="141.70969"
       r="62.899368" />
    <g
       style="font-style:normal;font-weight:normal;font-size:40px;line-height:125%;font-family:Sans;letter-spacing:0px;word-spacing:0px;fill:#08c300;fill-opacity:1;stroke:#08c300;stroke-width:1.05754519;stroke-linecap:butt;stroke-linejoin:miter;stroke-miterlimit:4;stroke-dasharray:none;stroke-opacity:1"
       id="text4136"
       transform="matrix(1.8911721,0,0,1.8911721,6.1173534,-48.694462)">
      <path
         d="m 200.39705,85.245689 0.73242,1.269532 q -7.15332,5.053711 -13.25684,12.792968 -6.10351,7.739261 -8.81347,15.161131 l -1.07422,0.70801 q -1.3916,0.90332 -2.39258,1.80664 -0.1709,-0.87891 -0.95215,-2.83203 l -0.56152,-1.3916 q -1.83106,-4.5166 -3.10059,-6.29883 -1.24511,-1.80664 -2.70996,-1.95313 1.97754,-1.80664 3.44239,-1.80664 2.02636,0 4.44335,5.44434 l 0.87891,1.95313 q 4.32129,-7.73926 10.42481,-14.257817 6.12793,-6.518555 12.93945,-10.595704 z"
         style="font-style:normal;font-variant:normal;font-weight:normal;font-stretch:normal;font-size:50px;line-height:125%;font-family:'Wingdings 2';-inkscape-font-specification:'Wingdings 2, Normal';text-align:start;writing-mode:lr-tb;text-anchor:start;fill:#08c300;fill-opacity:1;stroke:#08c300;stroke-width:1.05754519;stroke-miterlimit:4;stroke-dasharray:none;stroke-opacity:1"
         id="path4141"
         inkscape:connector-curvature="0" />
    </g>
  </g>
</svg>
