﻿v [km/h] , a_rsv_low [m/s²] , a_rsv_high [m/s²]
    0    ,  0.00            ,   0.15
   10    ,  0.00            ,   0.15
   20    ,  0.00            ,   0.15
   30    , -0.05            ,   0.1
   40    , -0.05            ,   0.1
   50    , -0.10            ,   0.1
   60    , -0.10            ,   0.1
   70    , -0.10            ,   0.05
   80    , -0.10            ,   0.05
   90    , -0.10            ,   0.05
  100    , -0.10            ,   0.05